# title
'2-D reactive tranport model of groundwater quality change in response to CO2'
#'-----------------------------------------------------------------------------'
#'DEFINITION OF THE GEOCHEMICAL SYSTEM'
#'PRIMARY AQUEOUS SPECIES'
'h2o'          0
'h+'           0
'ca+2'         0
'mg+2'         0
'na+'          0
'k+'           0
'cl-'          0
'HS-'        0
'so4-2'        0
'hco3-'        0
'fe+2'         0
'fe+3'         0
'H4SiO4(aq)'     0
'alo2-'        0
'H3AsO3(aq)'     0
'Ba++'           0
'Cd++'           0
'Pb++'           0
'HSe-'           0
'O2(aq)'         0
'c6h6(aq)'     0
'c6h5oh'         0
'c10h8'          0
'goe_soh'      2  'Goethite'    3.9E-08	  2   0.0
'goe_woh'      2  'Goethite'   3.8E-06   2   0.0
'ill_soh'      2  'illite-al'	    2.27E-6  1   2.0
'ill_h'        2  'illite-al'	    1.3E-6   1   2.0
'kao_soh'      2  'kaolinite'    2.24E-6	  1   1.2
'kao_h'        2  'kaolinite'   3.57E-7   1   1.2
'mon_soh'      2  'mg-mont-ca'	    4.41E-6   1   3.2
'mon_h'        2  'mg-mont-ca'	    1.53E-5   1  3.2
'*'            0
#'AQUEOUS KINETICS'
'*'
#'AQUEOUS COMPLEXES'
co2(aq)
cahco3+
mghco3+
caco3(aq)
co3-2
nahco3(aq)
hsio3-
mgco3(aq)
nahsio3(aq)
cacl+
mgcl+
oh-
nacl(aq)
mghsio3+
cahsio3+
mgoh+
naco3-
caoh+
naoh(aq)
kcl(aq)
cacl2(aq)
alo+
koh(aq)
aloh+2
al+3
halo2(aq)
mg4(oh)4+4
h2s(aq)
fes(aq)
naso4-
fese(aq)
kso4-
feco3(aq)
fehco3+
feoh+
hso4-
feso4(aq)
fe(co3)2-2
fecl+
h2se(aq)
hfeo2-
hfeo2(aq)
also4+
feoh+2
fecl2(aq)
fecl+2
feso4+
fe(so4)2-
fe2(oh)2+4
bahco3+
baco3(aq)
bacl+
baoh+
cd(oh)2(hs)-
cds(aq)
cdse(aq)
cd(oh)2(hse)-
cd(hs)3-
cd(hs)4-2
cdhco3+
cdcl+
cdco3(aq)
cdoh+
cd(hse)3-
cd(oh)cl(aq)
cdcl2(aq)
cd(co3)2-2
cdso4(aq)
cdo(aq)
cdcl3-
cd(hse)4-2
cdcl4-2
hcdo2-
cdo2-2
pbs(aq)
pbse(aq)
pb(hs)2(aq)
pb(hs)3-
pb(hse)2(aq)
pb(hse)3-
pbco3(aq)
pb(co3)2-2
pb(oh)+
pbcl+
pb(oh)2(aq)
pbcl2(aq)
pb(oh)3-
pbcl3-
pbcl4-2
pb2(oh)+3
aso3-3
haso3-2
h2aso3-
'*'
#'MINERALS'         ! equilibrium mineral goes first
'anhydrite' 0  0  0   0
0. 0. 0.
'calcite'          1      3     0    0
             1.6000e-06    2   1.0  1.0  23.50  0.0  0.0  0.0       ! Neutral mechanism
                          1
                          0.0000e-00   14.4    1   'h+'  1.0          ! acid
             4.5709e-09    0   1.0  1.0  23.50  0.0  0.0  0.0  1.e-6   0
0.0   0.    000.00
'illite-al'       1      3     0    0
             1.6596e-13    2   1.0  1.0  35.00  0.0  0.0  0.0
                          1
                          1.0471e-11   23.6    1   'h+'  0.34
             1.6596e-13  0  1.0  1.0  35.00  0.0  0.0  0.0  1.e-6   0
0.0   0.    000.00
'kaolinite'       1      3     0    0
             6.9183e-13    2   1.0  1.0  22.20  0.0  0.0  0.0
                          1
                          4.8978e-13   65.90    1   'h+'   0.777     ! acid
             6.9183e-13    0   1.0  1.0  22.20  0.0  0.0  0.0  1.e-6   0
0.0   0.    000.00
'Mg-Mont-Ca'       1      3     0    0
             1.6596e-13    2   1.0  1.0  35.00  0.0  0.0  0.0
                          1
                          1.0471e-11   23.6    1   'h+'  0.34
             1.6596e-13  0  1.0  1.0  35.00  0.0  0.0  0.0  1.e-6   0
0.0   0.    000.00
'Goethite'        1      3     0    0
             2.5119E-12    0   1.0  1.0  62.76  0.0  0.0  0.0
             2.5119E-12    0   1.0  1.0  62.76  0.0  0.0  0.0    1.e-6   0
0.0   0.    000.00
'albite_low'          1      3     0    0
             2.7542e-13    2   1.0  1.0 69.80  0.0  0.0  0.0
                          1
                          6.9183e-11   65.0    1   'h+'   0.457      ! acid mechanism
             1.0000e-12  0  1.0  1.0  67.83  0.0  0.0  0.0   1.e-6   0
0.0   0.    000.00
'Quartz-alpha'           1    3     0    0
              1.2589e-14 0 1.0 1.0 87.5 0.0 0.0 0.0    ! prec.
              1.2589e-14 1 1.0 1.0 87.5 0.0 0.0 0.0  1.e-6   0
                         0.0   0.0   7.5   -1.0
0.0   0.    000.00
'k-feldspar'     1      3     0    0
             3.8905e-13    2   1.0  1.0  38.00  0.0  0.0  0.0
                          1
                          8.7096e-11   51.7    1   'h+'   0.5      ! acid mechanism
             3.8905e-13  0  1.0  1.0  38.00  0.0  0.0  0.0  1.e-6   0
0.0   0.    000.00
'dolomite'        1      3     0    0
             2.9512e-08    2   1.0  1.0  52.20  0.0  0.0  0.0
                          1
                          6.4565e-04  36.1    1   'h+'   0.5
             2.9512e-08    0   1.0  1.0  52.20  0.0  0.0  0.0  1.e-6   0
0.0   0.    000.00
'Magnesite(Natur)'         1      3     0    0
             4.5709e-10    2   1.0  1.0  23.50  0.0  0.0  0.0       ! Neutral mechanism
                          1
                          4.1687e-07   14.4    1   'h+'  1.0          ! acid
             4.5709e-10    0   1.0  1.0  23.50  0.0  0.0  0.0  1.e-6   0
0.0   0.    000.00
'dawsonite'         1      3     0    0
             1.2598e-09    2   1.0  1.0  62.76  0.0  0.0  0.0
                          1
                          6.4565e-04  36.1    1   'h+'   0.5
             1.2589e-09    0   1.0  1.0  62.76  0.0  0.0  0.0  1.e-6   0
0.0   0.    000.00
'Muscovite_ord'         1      3     0    0
             1.2598e-13    2   1.0  1.0  62.76  0.0  0.0  0.0
                          1
                          6.4565e-04  36.1    1   'h+'   0.5
             1.2589e-13    0   1.0  1.0  62.76  0.0  0.0  0.0  1.e-6   0
0.0   0.    000.00
'Ferrihydrite2L'         1      3     0    0
             1.2598e-09    2   1.0  1.0  62.76  0.0  0.0  0.0
                          1
                          6.4565e-04  36.1    1   'h+'   0.5
             1.2589e-09    0   1.0  1.0  62.76  0.0  0.0  0.0  1.e-6   0
0.0   0.    000.00
'Gibbsite'         1      3     0    0
             1.2598e-09    2   1.0  1.0  62.76  0.0  0.0  0.0
                          1
                          6.4565e-04  36.1    1   'h+'   0.5
             1.2589e-09    0   1.0  1.0  62.76  0.0  0.0  0.0  1.e-6   0
0.0   0.    000.00
'galena'        1      3     0    0
             0.0000e-00    2   1.0  1.0  62.76  0.0  0.0  0.0
                          1
                          2.34e-07  43.54    1   'h+'   1.0
             2.5119E-12    0   1.0  1.0  62.76  0.0  0.0  0.0      1.e-6   0
0.7   40.    100.00
'pyrite'          1      3     0    0
             2.5119E-12    0   1.0  1.0  62.76  0.0  0.0  0.0
             2.5119E-12    0   1.0  1.0  62.76  0.0  0.0  0.0    1.e-6   0
0.0   0.    000.00
'pyrss'        1      3     0    0
             2.5119E-12    0   1.0  1.0  62.76  0.0  0.0  0.0
             2.5119E-12    0   1.0  1.0  62.76  0.0  0.0  0.0    1.e-6   0
0.0   0.    000.00
'barite'     1      3     0    0
             2.5119E-12    0   1.0  1.0  62.76  0.0  0.0  0.0
             2.5119E-12    0   1.0  1.0  62.76  0.0  0.0  0.0    1.e-6   0
0.0   0.    000.00
'cadmoselite'        1      3     0    0
              0.0000e-00    2   1.0  1.0  62.76  0.0  0.0  0.0
                           1
                           2.34e-07  43.54    1   'h+'   1.0
              2.5119E-12    0   1.0  1.0  62.76  0.0  0.0  0.0      1.e-6   0
 0.0   0.    000.00
'clausthalite'        1      3     0    0
              0.0000e-00    2   1.0  1.0  62.76  0.0  0.0  0.0
                           1
                           2.34e-07  43.54    1   'h+'   1.0
              2.5119E-12    0   1.0  1.0  62.76  0.0  0.0  0.0      1.e-6   0
 0.7   40.    100.00
'ferroselite'        1      3     0    0
              0.0000e-00    2   1.0  1.0  62.76  0.0  0.0  0.0
                           1
                           2.34e-07  43.54    1   'h+'   1.0
              2.5119E-12    0   1.0  1.0  62.76  0.0  0.0  0.0      1.e-6   0
 0.0   0.    000.00
'*'               0      0    0            0
#'GASES'
'co2(g)'
'*'
#'SURFACE COMPLEXES'
'goe_soh2+'
'goe_sO-'
'goe_woh2+'
'goe_wO-'
'goe_sopb+'
'goe_wopb+'
'goe_socd+'
'goe_wocd+'
'ill_soh2+'
'ill_sO-'
'ill_sopb+'
'ill_pboh'
'(ill_)2pb'
'ill_socd+'
'ill_cdoh'
'(ill_)2cd'
'kao_soh2+'
'kao_sO-'
'kao_sopb+'
'(kao_)2pb'
'kao_socd+'
'(kao_)2cd'
'mon_soh2+'
'mon_sO-'
'mon_sopb+'
'(mon_)2pb'
'mon_socd+'
'(mon_)2cd'
'goe_soh2aso3'
'goe_sohaso3-'
'ill_soh2aso3'
'ill_sohaso3-'
'kao_sohaso3-'
'mon_soh2aso3'
'mon_sohaso3-'
'*'
#'species with Kd and decay    decay constant(1/s)'
'c6h6(aq)'   $bendecay$  0.0  0.0d0  0.0d0
'c6h5oh'     $phendecay$  0.0d0  0.0d0
'c10h8'     $naphdecay$  0.0d0  0.0d0
'*'
#'EXCHANGEABLE CATIONS'
1  0
#'                 master     convention     ex. coef.'
'na+'               1            1           1.0000
'h+'                0            1           1.00
'ca+2'              0            1           0.4000
'mg+2'              0            1           0.4500
'k+'                0            1           0.2000
'ba++'              0            1           0.3500
'*'
#'----------------------------------------------------------------------------'
#'INITIAL AND BOUDARY WATER TYPES'
1   1   !niwtype, nbwtype = number of initial and boundary waters
# Index  Speciation T(C)  P(bar)
1     25.0     0		            !iwtype initial, temp (C)
#'        icon        guess         ctot         '
'h2o'       1   1.0000       1.00000        '*'     0.0
'h+'        3   4.03645E-08  4.03645E-08    '*'     0.0
'ca+2'      2   1.3165E-03   1.3696E-03     'calcite'     0.0
'mg+2'      1   8.4222E-04   8.7357E-04     '*'     0.0
'na+'       1   1.5922E-03   1.6005E-03     '*'     0.0
'k+'        1   1.1254E-04   1.1257E-04     '*'     0.0
'cl-'       4   7.6974E-04    7.7060E-04    '*'     0.0
'HS-'     1   5.1690E-04   6.48E-04     '*'     0.0
'so4-2'     1   5.7720E-05   5.7720E-05     '*'     0.0
'hco3-'     1   3.6541E-03   3.9459E-03     '*'     0.0
'H4SiO4(aq)'  1   5.1876E-04   5.3329E-04     '*'     0.0
'fe+2'      1   1.1743E-08   1.0076E-06     '*'     0.0
'fe+3'      2   5.7721E-26   8.9669E-16     'Goethite'     0.0
'alo2-'     1   6.0407E-08   1.5717E-07     '*'     0.0
'Sb(OH)3(aq)' 1  3.5399E-14  5.5947E-10     '*'     0.0
'H3AsO3(aq)'  1  2.3342E-08 2.3342E-08      '*'     0.0
'Ba++'        1 7.8917E-07    8.1014E-07    '*'     0.0
'Cd++'        1 2.2847E-19    6.9146E-10    '*'     0.0
'Pb++'        1  2.4092E-19   1.5694E-09    '*'     0.0
'HSe-'        1  5.1764E-08   5.3438E-08    '*'     0.0
'O2(aq)'      1  7.4378E-75   7.4378E-75    '*'     0.0
'c6h6(aq)'    1  1.0000E-15   1.0000E-15  '*'     0.0
'c6h5oh'    1  1.0000E-15   1.0000E-15  '*'     0.0
'c10h8'    1  1.0000E-15   1.0000E-15  '*'     0.0
'goe_soh'   1    0.2180E-03    0.2180E-03    '*'     0.0
'goe_woh'   1    0.2180E-03    0.2180E-03    '*'     0.0
'ill_soh'   1    0.1750E-09    0.1750E-09    '*'     0.0
'ill_h'     1    0.1750E-09    0.1750E-09    '*'     0.0
'kao_soh'   1    0.2180E-03    0.2180E-03    '*'     0.0
'kao_h'     1    0.2180E-03    0.2180E-03    '*'     0.0
'mon_soh'   1    0.1750E-09    0.1750E-09    '*'     0.0
'mon_h'     1    0.1750E-09    0.1750E-09    '*'     0.0
'*'        0           0.0           0.0    '*'     0.0
1     25.0     0		            !iwtype initial, temp (C)
#'        icon        guess         ctot         '
'h2o'       1   1.0000       1.00000        '*'     0.0
'h+'        3   4.03645E-08  4.03645E-08    '*'     0.0
'ca+2'      2   1.3165E-03   1.3696E-03     'calcite'     0.0
'mg+2'      1   8.4222E-04   8.7357E-04     '*'     0.0
'na+'         1 $clbrinegue$    $clbrine$      '*'     0.0
'k+'        1   1.1254E-04   1.1257E-04     '*'     0.0
'cl-'         1 $clbrinegue$    $clbrine$   '*'     0.0
'HS-'     1   5.1690E-04   6.48E-04     '*'     0.0
'so4-2'     1   5.7720E-05   5.7720E-05     '*'     0.0
'hco3-'     1   3.6541E-03   3.9459E-03     '*'     0.0
'H4SiO4(aq)'  1   5.1876E-04   5.3329E-04     '*'     0.0
'fe+2'      1   1.1743E-08   1.0076E-06     '*'     0.0
'fe+3'      2   5.7721E-26   8.9669E-16     'Goethite'     0.0
'alo2-'     1   6.0407E-08   1.5717E-07     '*'     0.0
'Sb(OH)3(aq)' 1  3.5399E-14  5.5947E-10     '*'     0.0
'H3AsO3(aq)'  1 $asbrinegue$    $asbrine$      '*'     0.0
'Ba++'        1 $babrinegue$    $babrine$      '*'     0.0
'Cd++'        1  $cdbrinegue$    $cdbrine$   '*'     0.0
'Pb++'        1  $pbbrinegue$    $pbbrine$    '*'     0.0
'HSe-'        1  5.1764E-08   5.3438E-08    '*'     0.0
'O2(aq)'      1  7.4378E-75   7.4378E-75    '*'     0.0
'c6h6(aq)'    1 $benbrinegue$    $benbrine$      '*'     0.0
'c6h5oh'      1 $phebrinegue$    $phebrine$     '*'     0.0
'c10h8'       1 $napbrinegue$    $napbrine$      '*'     0.0
'goe_soh'   1    0.2180E-03    0.2180E-03    '*'     0.0
'goe_woh'   1    0.2180E-03    0.2180E-03    '*'     0.0
'ill_soh'   1    0.1750E-09    0.1750E-09    '*'     0.0
'ill_h'     1    0.1750E-09    0.1750E-09    '*'     0.0
'kao_soh'   1    0.2180E-03    0.2180E-03    '*'     0.0
'kao_h'     1    0.2180E-03    0.2180E-03    '*'     0.0
'mon_soh'   1    0.1750E-09    0.1750E-09    '*'     0.0
'mon_h'     1    0.1750E-09    0.1750E-09    '*'     0.0
'*'        0           0.0           0.0    '*'     0.0
#'----------------------------------------------------------------------------'
# 'INITIAL MINERAL ZONES'
 1                                       !nmtype= number of mineral zones
 1					!imtype
# 'mineral         vol.frac.'
  'anhydrite'   0.0       0
  'calcite'   0.0000       1
  .1E-02         3.05e-1          0
  'illite-al' $illite$       1
 .1E-02       1516.3e-1          0
  'kaolinite' $kaolinite$       1
 .1E-02       1516.3e-1          0
  'Mg-Mont-Ca' $montmori$      1
 .1E-02       1516.3e-1          0
  'goethite'  $goethite$       1
 .1E-02        128.7e-1          0
  'albite_low'        0.050      1
 .1E-02         98.0e-1          0
 'Quartz-alpha'            0.776    1
  .1E-02         98.0e-1          0
 'k-feldspar'        0.0618     1
 .1E-02         98.0e-1          0
  'dolomite'          0.0000    1
 .1E-02         98.0e-1          0
 'Magnesite(Natur)'   0.0  1
 .1E-02          98.0e-1          0
  'dawsonite'         0.000      1
.1E-02          98.0e-1          0
  'Muscovite_ord'         0.000      1
.1E-02          98.0e-1          0
  'Ferrihydrite2L'         0.000      1
.1E-02          98.0e-1          0
  'Gibbsite'         0.000      1
.1E-02          98.0e-1          0
'*'
#'----------------------------------------------------------------------------'
#'INITIAL gas ZONES'
1                                  !ngtype= number of gas zones
1                                  !igtype
#'gas      partial pressure'    !at 25 C equil w/ water
'co2(g)'           0.0
'*'
#'----------------------------------------------------------------------------'
#'Permeability-Porosity Zones'
'*'
#'----------------------------------------------------------------------------'
#'INITIAL SURFACE ADSORPTION ZONES'
1   			!ndtype= number of sorption zones
#'zone       ad.surf.(cm2/g)  '
1 1
'goe_soh'    0    80.0e+4
'goe_woh'    0    80.6e+4
'ill_soh'    0    66.8e+4
'ill_h'      0    66.8e+4
'kao_soh'    0    22.4e+4
'kao_h'      0    22.4e+4
'mon_soh'    0    46.0e+4
'mon_h'      0    46.0e+4
'*'
#'---------------------------------------if Sden=0 Kd store retardation factor'
#'INITIAL LINEAR EQUILIBRIUM Kd ZONE'
1					!kdtpye=number of Kd zones
1					!idtype
#'species   solid-density(Sden,kg/dm**3)  Kd(l/kg=mass/kg solid / mass/l'
'c6h6(aq)'         2.70    $benzenekd$
'c6h5oh'           2.70    $phenolkd$
'c10h8'            2.70    $naphthalkd$
'*'                0.0                 0.0
#'---------------------------------------if Sden=0 Kd store retardation factor'
#'INITIAL ZONES OF CATION EXCHANGE'
1   			!nxtype= number of exchange zones
#'zone            ex. capacity'
1                 $cecsand$
'*'
#'----------------------------------------------------------------------------'
#'end'
